{
  "$ref": "#/definitions/VaultSchema",
  "$schema": "http://json-schema.org/draft-06/schema#",
  "definitions": {
    "VaultSchema": {
      "additionalProperties": false,
      "properties": {
        "admin_password": {
          "type": "string"
        },
        "admin_username": {
          "type": "string"
        },
        "restic_password_1": {
          "type": "string"
        },
        "root_restic_password": {
          "type": "string"
        }
      },
      "required": ["admin_password", "admin_username", "restic_password_1", "root_restic_password"],
      "title": "VaultSchema",
      "type": "object"
    }
  }
}
